Identification of queries — rd_query • REDCapDM
…
# Expression
example <- rd_query(covican,
                    variables="age",
                    expression="x>20",
                    event="baseline_visit_arm_1")
example
#> $queries
#> # A tibble: 185 × 9
#>    Identifier DAG      Event Instrument Field Repetition Description Query Code 
#>    <chr>      <chr>    <chr> <chr>      <chr> <chr>      <chr>       <chr> <chr>
#>  1 100-6      Hospita… Base… Demograph… age   -          Age         The … 100-…
#>  2 100-13     Hospita… Base… Demograph… age   -          Age         The … 100-…
#>  3 100-16     Hospita… Base… Demograph… age   -          Age         The … 100-…
#>  4 100-31     Hospita… Base… Demograph… age   -          Age         The … 100-…
#>  5 100-34     Hospita… Base… Demograph… age   -          Age         The … 100-…
#>  6 100-36     Hospita… Base… Demograph… age   -          Age         The … 100-…
#>  7 100-52     Hospita… Base… Demograph… age   -          Age         The … 100-…
#>  8 100-58     Hospita… Base… Demograph… age   -          Age         The … 100-…
#>  9 100-65     Hospita… Base… Demograph… age   -          Age         The … 100-…
#> 10 100-66     Hospita… Base… Demograph… age   -          Age         The … 100-…
#> # ℹ 175 more rows
…
# Using the filter argument
example <- rd_query(covican,
                    variables = "potassium",
                    expression = "is.na(x)",
                    event = "baseline_visit_arm_1",
                    filter = "available_analytics=='1'")
#> Warning: The branching logic of the following variable was applied automatically: potassium
example
#> $queries
#> # A tibble: 21 × 9
#>    Identifier DAG      Event Instrument Field Repetition Description Query Code 
#>    <chr>      <chr>    <chr> <chr>      <chr> <chr>      <chr>       <chr> <chr>
#>  1 102-6      Hospita… Base… Laborator… pota… -          Potassium   The … 102-…
#>  2 102-13     Hospita… Base… Laborator… pota… -          Potassium   The … 102-…
#>  3 102-23     Hospita… Base… Laborator… pota… -          Potassium   The … 102-…
#>  4 102-27     Hospita… Base… Laborator… pota… -          Potassium   The … 102-…
#>  5 102-30     Hospita… Base… Laborator… pota… -          Potassium   The … 102-…
#>  6 102-39     Hospita… Base… Laborator… pota… -          Potassium   The … 102-…
#>  7 102-48     Hospita… Base… Laborator… pota… -          Potassium   The … 102-…
#>  8 102-60     Hospita… Base… Laborator… pota… -          Potassium   The … 102-…
#>  9 102-64     Hospita… Base… Laborator… pota… -          Potassium   The … 102-…
#> 10 102-73     Hospita… Base… Laborator… pota… -          Potassium   The … 102-…
#> # ℹ 11 more rows
…
